^C:\USERS\DONGNYEONKIM\SOURCE\REPOS\UNITY_PRAC_C+SERVER\UNITY_PRAC_C+SERVER\SERVER.CPP
C:\USERS\DONGNYEONKIM\SOURCE\REPOS\UNITY_PRAC_C+SERVER\UNITY_PRAC_C+SERVER\X64\DEBUG\VC142.PDB
C:\USERS\DONGNYEONKIM\SOURCE\REPOS\UNITY_PRAC_C+SERVER\UNITY_PRAC_C+SERVER\X64\DEBUG\VC142.IDB
C:\USERS\DONGNYEONKIM\SOURCE\REPOS\UNITY_PRAC_C+SERVER\UNITY_PRAC_C+SERVER\X64\DEBUG\SERVER.OBJ
^D:\LASTPROJECT_SERVER\LASTPROJECT_SERVER\UNITY_PRAC_C+SERVER\UNITY_PRAC_C+SERVER\SERVER_EXAM.CPP
D:\LASTPROJECT_SERVER\LASTPROJECT_SERVER\UNITY_PRAC_C+SERVER\UNITY_PRAC_C+SERVER\X64\DEBUG\VC142.PDB
D:\LASTPROJECT_SERVER\LASTPROJECT_SERVER\UNITY_PRAC_C+SERVER\UNITY_PRAC_C+SERVER\X64\DEBUG\VC142.IDB
D:\LASTPROJECT_SERVER\LASTPROJECT_SERVER\UNITY_PRAC_C+SERVER\UNITY_PRAC_C+SERVER\X64\DEBUG\SERVER_EXAM.OBJ
^D:\LASTPROJECT_SERVER\LASTPROJECT_SERVER\UNITY_PRAC_C+SERVER\UNITY_PRAC_C+SERVER\SERVER_EXAM_UDP.CPP
D:\LASTPROJECT_SERVER\LASTPROJECT_SERVER\UNITY_PRAC_C+SERVER\UNITY_PRAC_C+SERVER\X64\DEBUG\VC142.PDB
D:\LASTPROJECT_SERVER\LASTPROJECT_SERVER\UNITY_PRAC_C+SERVER\UNITY_PRAC_C+SERVER\X64\DEBUG\VC142.IDB
D:\LASTPROJECT_SERVER\LASTPROJECT_SERVER\UNITY_PRAC_C+SERVER\UNITY_PRAC_C+SERVER\X64\DEBUG\SERVER_EXAM_UDP.OBJ
