^C:\USERS\LEEMIREUK\DESKTOP\동년이서버\LASTPROJECT_SERVER\PVP\2020_IOCP_SERVER\2020_IOCP_SERVER\DEBUG\ASTAR.OBJ|C:\USERS\LEEMIREUK\DESKTOP\동년이서버\LASTPROJECT_SERVER\PVP\2020_IOCP_SERVER\2020_IOCP_SERVER\DEBUG\IOCP_SERVER.OBJ|C:\USERS\LEEMIREUK\DESKTOP\동년이서버\LASTPROJECT_SERVER\PVP\2020_IOCP_SERVER\2020_IOCP_SERVER\LUA54.LIB
/OUT:"C:\USERS\LEEMIREUK\DESKTOP\동년이서버\LASTPROJECT_SERVER\PVP\2020_IOCP_SERVER\2020_IOCP_SERVER\DEBUG\2020_IOCP_SERVER.EXE" /INCREMENTAL /NOLOGO KERNEL32.LIB USER32.LIB GDI32.LIB WINSPOOL.LIB COMDLG32.LIB ADVAPI32.LIB SHELL32.LIB OLE32.LIB OLEAUT32.LIB UUID.LIB ODBC32.LIB ODBCCP32.LIB /MANIFEST /MANIFESTUAC:"level='asInvoker' uiAccess='false'" /manifest:embed /DEBUG:FASTLINK /PDB:"C:\USERS\LEEMIREUK\DESKTOP\동년이서버\LASTPROJECT_SERVER\PVP\2020_IOCP_SERVER\2020_IOCP_SERVER\DEBUG\2020_IOCP_SERVER.PDB" /SUBSYSTEM:CONSOLE /TLBID:1 /DYNAMICBASE /NXCOMPAT /IMPLIB:"C:\USERS\LEEMIREUK\DESKTOP\동년이서버\LASTPROJECT_SERVER\PVP\2020_IOCP_SERVER\2020_IOCP_SERVER\DEBUG\2020_IOCP_SERVER.LIB" /MACHINE:X86 DEBUG\ASTAR.OBJ
DEBUG\IOCP_SERVER.OBJ
LUA54.LIB
^C:\USERS\LEEMIREUK\DESKTOP\DS\LASTPROJECT_SERVER\PVP\2020_IOCP_SERVER\2020_IOCP_SERVER\DEBUG\ASTAR.OBJ|C:\USERS\LEEMIREUK\DESKTOP\DS\LASTPROJECT_SERVER\PVP\2020_IOCP_SERVER\2020_IOCP_SERVER\DEBUG\IOCP_SERVER.OBJ|C:\USERS\LEEMIREUK\DESKTOP\DS\LASTPROJECT_SERVER\PVP\2020_IOCP_SERVER\2020_IOCP_SERVER\LUA54.LIB
/OUT:"C:\USERS\LEEMIREUK\DESKTOP\DS\LASTPROJECT_SERVER\PVP\2020_IOCP_SERVER\2020_IOCP_SERVER\DEBUG\2020_IOCP_SERVER.EXE" /INCREMENTAL /ILK:"DEBUG\2020_IOCP_SERVER.ILK" /NOLOGO KERNEL32.LIB USER32.LIB GDI32.LIB WINSPOOL.LIB COMDLG32.LIB ADVAPI32.LIB SHELL32.LIB OLE32.LIB OLEAUT32.LIB UUID.LIB ODBC32.LIB ODBCCP32.LIB /MANIFEST /MANIFESTUAC:"level='asInvoker' uiAccess='false'" /manifest:embed /DEBUG /PDB:"C:\USERS\LEEMIREUK\DESKTOP\DS\LASTPROJECT_SERVER\PVP\2020_IOCP_SERVER\2020_IOCP_SERVER\DEBUG\2020_IOCP_SERVER.PDB" /SUBSYSTEM:CONSOLE /TLBID:1 /DYNAMICBASE /NXCOMPAT /IMPLIB:"C:\USERS\LEEMIREUK\DESKTOP\DS\LASTPROJECT_SERVER\PVP\2020_IOCP_SERVER\2020_IOCP_SERVER\DEBUG\2020_IOCP_SERVER.LIB" /MACHINE:X86 DEBUG\ASTAR.OBJ
DEBUG\IOCP_SERVER.OBJ
LUA54.LIB
^D:\LASTPROJECT_SERVER\LASTPROJECT_SERVER\LASTPROJECT_SERVER\PVP\2020_IOCP_SERVER\2020_IOCP_SERVER\DEBUG\ASTAR.OBJ|D:\LASTPROJECT_SERVER\LASTPROJECT_SERVER\LASTPROJECT_SERVER\PVP\2020_IOCP_SERVER\2020_IOCP_SERVER\DEBUG\IOCP_SERVER.OBJ|D:\LASTPROJECT_SERVER\LASTPROJECT_SERVER\LASTPROJECT_SERVER\PVP\2020_IOCP_SERVER\2020_IOCP_SERVER\LUA54.LIB
/OUT:"D:\LASTPROJECT_SERVER\LASTPROJECT_SERVER\LASTPROJECT_SERVER\PVP\2020_IOCP_SERVER\2020_IOCP_SERVER\DEBUG\2020_IOCP_SERVER.EXE" /INCREMENTAL /ILK:"DEBUG\2020_IOCP_SERVER.ILK" /NOLOGO /LIBPATH:"C:\VCPKG\VCPKG-MASTER\VCPKG-MASTER\INSTALLED\X86-WINDOWS\DEBUG\LIB" /LIBPATH:"C:\VCPKG\VCPKG-MASTER\VCPKG-MASTER\INSTALLED\X86-WINDOWS\DEBUG\LIB\MANUAL-LINK" KERNEL32.LIB USER32.LIB GDI32.LIB WINSPOOL.LIB COMDLG32.LIB ADVAPI32.LIB SHELL32.LIB OLE32.LIB OLEAUT32.LIB UUID.LIB ODBC32.LIB ODBCCP32.LIB "C:\VCPKG\VCPKG-MASTER\VCPKG-MASTER\INSTALLED\X86-WINDOWS\DEBUG\LIB\*.LIB" /MANIFEST /MANIFESTUAC:"level='asInvoker' uiAccess='false'" /manifest:embed /DEBUG /PDB:"D:\LASTPROJECT_SERVER\LASTPROJECT_SERVER\LASTPROJECT_SERVER\PVP\2020_IOCP_SERVER\2020_IOCP_SERVER\DEBUG\2020_IOCP_SERVER.PDB" /SUBSYSTEM:CONSOLE /TLBID:1 /DYNAMICBASE /NXCOMPAT /IMPLIB:"D:\LASTPROJECT_SERVER\LASTPROJECT_SERVER\LASTPROJECT_SERVER\PVP\2020_IOCP_SERVER\2020_IOCP_SERVER\DEBUG\2020_IOCP_SERVER.LIB" /MACHINE:X86 DEBUG\ASTAR.OBJ
DEBUG\IOCP_SERVER.OBJ
LUA54.LIB
