^C:\USERS\DONGNYEONKIM\SOURCE\REPOS\UNITY_PRAC_C+SERVER\UNITY_PRAC_C+SERVER\SERVER.CPP
/c /I"C:\VCPKG\VCPKG-MASTER\VCPKG-MASTER\INSTALLED\X64-WINDOWS\INCLUDE" /ZI /JMC /nologo /W3 /WX- /diagnostics:column /sdl /Od /D _DEBUG /D _CONSOLE /D _UNICODE /D UNICODE /Gm- /EHsc /RTC1 /MDd /GS /fp:precise /permissive- /Zc:wchar_t /Zc:forScope /Zc:inline /Fo"X64\DEBUG\\" /Fd"X64\DEBUG\VC142.PDB" /Gd /TP /FC C:\USERS\DONGNYEONKIM\SOURCE\REPOS\UNITY_PRAC_C+SERVER\UNITY_PRAC_C+SERVER\SERVER.CPP
^D:\LASTPROJECT_SERVER\LASTPROJECT_SERVER\UNITY_PRAC_C+SERVER\UNITY_PRAC_C+SERVER\SERVER_EXAM.CPP
/c /I"C:\VCPKG\VCPKG-MASTER\VCPKG-MASTER\INSTALLED\X64-WINDOWS\INCLUDE" /ZI /JMC /nologo /W3 /WX- /diagnostics:column /sdl /Od /D _DEBUG /D _CONSOLE /D _UNICODE /D UNICODE /Gm- /EHsc /RTC1 /MDd /GS /fp:precise /permissive- /Zc:wchar_t /Zc:forScope /Zc:inline /Fo"X64\DEBUG\\" /Fd"X64\DEBUG\VC142.PDB" /Gd /TP /FC D:\LASTPROJECT_SERVER\LASTPROJECT_SERVER\UNITY_PRAC_C+SERVER\UNITY_PRAC_C+SERVER\SERVER_EXAM.CPP
^D:\LASTPROJECT_SERVER\LASTPROJECT_SERVER\UNITY_C+_LOGINSERVER\UNITY_PRAC_C+SERVER\SERVER_EXAM.CPP
/c /I"C:\VCPKG\VCPKG-MASTER\VCPKG-MASTER\INSTALLED\X64-WINDOWS\INCLUDE" /ZI /JMC /nologo /W3 /WX- /diagnostics:column /sdl /Od /D _DEBUG /D _CONSOLE /D _UNICODE /D UNICODE /Gm- /EHsc /RTC1 /MDd /GS /fp:precise /permissive- /Zc:wchar_t /Zc:forScope /Zc:inline /Fo"X64\DEBUG\\" /Fd"X64\DEBUG\VC142.PDB" /Gd /TP /FC D:\LASTPROJECT_SERVER\LASTPROJECT_SERVER\UNITY_C+_LOGINSERVER\UNITY_PRAC_C+SERVER\SERVER_EXAM.CPP
^D:\LASTPROJECT_SERVER\LASTPROJECT_SERVER\UNITY_C+_LOGINSERVER\UNITY_PRAC_C+SERVER\LOGINSERVER_DONE.CPP
/c /I"C:\VCPKG\VCPKG-MASTER\VCPKG-MASTER\INSTALLED\X64-WINDOWS\INCLUDE" /ZI /JMC /nologo /W3 /WX- /diagnostics:column /sdl /Od /D _DEBUG /D _CONSOLE /D _UNICODE /D UNICODE /Gm- /EHsc /RTC1 /MDd /GS /fp:precise /permissive- /Zc:wchar_t /Zc:forScope /Zc:inline /Fo"X64\DEBUG\\" /Fd"X64\DEBUG\VC142.PDB" /Gd /TP /FC D:\LASTPROJECT_SERVER\LASTPROJECT_SERVER\UNITY_C+_LOGINSERVER\UNITY_PRAC_C+SERVER\LOGINSERVER_DONE.CPP
