^D:\LASTPROJECT_SERVER\LASTPROJECT_SERVER\UNITY_PRAC_C+SERVER\UNITY_PRAC_C+SERVER\X64\DEBUG\SERVER_EXAM.OBJ
D:\LASTPROJECT_SERVER\LASTPROJECT_SERVER\UNITY_PRAC_C+SERVER\X64\DEBUG\UNITY_PRAC_C+SERVER.EXE
D:\LASTPROJECT_SERVER\LASTPROJECT_SERVER\UNITY_PRAC_C+SERVER\X64\DEBUG\UNITY_PRAC_C+SERVER.ILK
D:\LASTPROJECT_SERVER\LASTPROJECT_SERVER\UNITY_PRAC_C+SERVER\X64\DEBUG\UNITY_PRAC_C+SERVER.PDB
^D:\LASTPROJECT_SERVER\LASTPROJECT_SERVER\UNITY_C+_LOGINSERVER\UNITY_PRAC_C+SERVER\X64\DEBUG\LOGINSERVER_DONE.OBJ
D:\LASTPROJECT_SERVER\LASTPROJECT_SERVER\UNITY_C+_LOGINSERVER\X64\DEBUG\UNITY_PRAC_C+SERVER.EXE
D:\LASTPROJECT_SERVER\LASTPROJECT_SERVER\UNITY_C+_LOGINSERVER\X64\DEBUG\UNITY_PRAC_C+SERVER.ILK
D:\LASTPROJECT_SERVER\LASTPROJECT_SERVER\UNITY_C+_LOGINSERVER\X64\DEBUG\UNITY_PRAC_C+SERVER.PDB
