^C:\Users\DongNyeonKim\source\repos\Unity_Prac_C+Server\Debug\Unity_Prac_C+Server.exe
C:\Users\DongNyeonKim\source\repos\Unity_Prac_C+Server\Unity_Prac_C+Server\Debug\vcpkg.applocal.log
^C:\Users\DongNyeonKim\source\repos\Unity_Prac_C+Server\Debug\Unity_Prac_C+Server.exe
C:\Users\DongNyeonKim\source\repos\Unity_Prac_C+Server\Unity_Prac_C+Server\Debug\vcpkg.applocal.log
^C:\Users\DongNyeonKim\source\repos\Unity_Prac_C+Server\Debug\Unity_Prac_C+Server.exe
C:\Users\DongNyeonKim\source\repos\Unity_Prac_C+Server\Unity_Prac_C+Server\Debug\vcpkg.applocal.log
^C:\Users\DongNyeonKim\source\repos\Unity_Prac_C+Server\Debug\Unity_Prac_C+Server.exe
C:\Users\DongNyeonKim\source\repos\Unity_Prac_C+Server\Unity_Prac_C+Server\Debug\vcpkg.applocal.log
^C:\Users\DongNyeonKim\source\repos\Unity_Prac_C+Server\Debug\Unity_Prac_C+Server.exe
C:\Users\DongNyeonKim\source\repos\Unity_Prac_C+Server\Unity_Prac_C+Server\Debug\vcpkg.applocal.log
^C:\Users\DongNyeonKim\source\repos\Unity_Prac_C+Server\Debug\Unity_Prac_C+Server.exe
C:\Users\DongNyeonKim\source\repos\Unity_Prac_C+Server\Unity_Prac_C+Server\Debug\vcpkg.applocal.log
^C:\Users\DongNyeonKim\source\repos\Unity_Prac_C+Server\Debug\Unity_Prac_C+Server.exe
C:\Users\DongNyeonKim\source\repos\Unity_Prac_C+Server\Unity_Prac_C+Server\Debug\vcpkg.applocal.log
^C:\Users\DongNyeonKim\source\repos\Unity_Prac_C+Server\Debug\Unity_Prac_C+Server.exe
C:\Users\DongNyeonKim\source\repos\Unity_Prac_C+Server\Unity_Prac_C+Server\Debug\vcpkg.applocal.log
^C:\Users\DongNyeonKim\source\repos\Unity_Prac_C+Server\Debug\Unity_Prac_C+Server.exe
C:\Users\DongNyeonKim\source\repos\Unity_Prac_C+Server\Unity_Prac_C+Server\Debug\vcpkg.applocal.log
^C:\Users\DongNyeonKim\source\repos\Unity_Prac_C+Server\Debug\Unity_Prac_C+Server.exe
C:\Users\DongNyeonKim\source\repos\Unity_Prac_C+Server\Unity_Prac_C+Server\Debug\vcpkg.applocal.log
^C:\Users\DongNyeonKim\source\repos\Unity_Prac_C+Server\Debug\Unity_Prac_C+Server.exe
C:\Users\DongNyeonKim\source\repos\Unity_Prac_C+Server\Unity_Prac_C+Server\Debug\vcpkg.applocal.log
^C:\Users\DongNyeonKim\source\repos\Unity_Prac_C+Server\Debug\Unity_Prac_C+Server.exe
C:\Users\DongNyeonKim\source\repos\Unity_Prac_C+Server\Unity_Prac_C+Server\Debug\vcpkg.applocal.log
^C:\Users\DongNyeonKim\source\repos\Unity_Prac_C+Server\Debug\Unity_Prac_C+Server.exe
C:\Users\DongNyeonKim\source\repos\Unity_Prac_C+Server\Unity_Prac_C+Server\Debug\vcpkg.applocal.log
^C:\Users\DongNyeonKim\source\repos\Unity_Prac_C+Server\Debug\Unity_Prac_C+Server.exe
C:\Users\DongNyeonKim\source\repos\Unity_Prac_C+Server\Unity_Prac_C+Server\Debug\vcpkg.applocal.log
^C:\Users\DongNyeonKim\source\repos\Unity_Prac_C+Server\Debug\Unity_Prac_C+Server.exe
C:\Users\DongNyeonKim\source\repos\Unity_Prac_C+Server\Unity_Prac_C+Server\Debug\vcpkg.applocal.log
^C:\Users\DongNyeonKim\source\repos\Unity_Prac_C+Server\Debug\Unity_Prac_C+Server.exe
C:\Users\DongNyeonKim\source\repos\Unity_Prac_C+Server\Unity_Prac_C+Server\Debug\vcpkg.applocal.log
^C:\Users\DongNyeonKim\source\repos\Unity_Prac_C+Server\Debug\Unity_Prac_C+Server.exe
C:\Users\DongNyeonKim\source\repos\Unity_Prac_C+Server\Unity_Prac_C+Server\Debug\vcpkg.applocal.log
^C:\Users\DongNyeonKim\source\repos\Unity_Prac_C+Server\Debug\Unity_Prac_C+Server.exe
C:\Users\DongNyeonKim\source\repos\Unity_Prac_C+Server\Unity_Prac_C+Server\Debug\vcpkg.applocal.log
^C:\Users\DongNyeonKim\source\repos\Unity_Prac_C+Server\Debug\Unity_Prac_C+Server.exe
C:\Users\DongNyeonKim\source\repos\Unity_Prac_C+Server\Unity_Prac_C+Server\Debug\vcpkg.applocal.log
^C:\Users\DongNyeonKim\source\repos\Unity_Prac_C+Server\Debug\Unity_Prac_C+Server.exe
C:\Users\DongNyeonKim\source\repos\Unity_Prac_C+Server\Unity_Prac_C+Server\Debug\vcpkg.applocal.log
